{
    "config": {
        "smtp_server": "smtp-relay.sendinblue.com",
        "smtp_port": "587",
        "smtp_user": "someone@somewhere.com",
        "smtp_pass": "smtppass",
        "from_email": "someone@somewhere.com",
        "alert_email": "someone@somewhere.com",
        "interval": "30",
        "api": "true",
        "api_url": "http://api.zpinger.svc.cluster.local:3000",
        "api_user": "admin",
        "api_pass": "apiadminpass"
    }
}