{
    "config": {
        "smtp_server": "smtp-relay.sendinblue.com",
        "smtp_port": "587",
        "smtp_user": "someone@somewhere.com",
        "smtp_pass": "smtppass",
        "from_email": "someone@somewhere.com",
        "alert_email": "someone@somewhere.com",
        "zpinger_url": "https://zpinger.com",
        "dbname": "zpinger",
        "dbpass": "dbpass",
        "dbuser": "zpinger",
        "dbhost": "pxc.pxc.svc.cluster.local"
    }
}
